module gitlab.com/gitlab-org/distribution/framework-bot

go 1.21.7

require (
	github.com/apatters/go-trace v1.0.0
	github.com/stretchr/testify v1.9.0
	github.com/xanzy/go-gitlab v0.98.0
)

require (
	github.com/davecgh/go-spew v1.1.1 // indirect
	github.com/golang/protobuf v1.5.3 // indirect
	github.com/google/go-querystring v1.1.0 // indirect
	github.com/hashicorp/go-cleanhttp v0.5.2 // indirect
	github.com/hashicorp/go-retryablehttp v0.7.2 // indirect
	github.com/pmezard/go-difflib v1.0.0 // indirect
	golang.org/x/net v0.8.0 // indirect
	golang.org/x/oauth2 v0.6.0 // indirect
	golang.org/x/time v0.3.0 // indirect
	google.golang.org/appengine v1.6.7 // indirect
	google.golang.org/protobuf v1.29.1 // indirect
	gopkg.in/yaml.v3 v3.0.1 // indirect
)
